…
    pdf (file = NULL)
    o <- suppressWarnings (
        res <- eval (parse (text = exs))
        )
    chk <- dev.off ()

### Load the traces

Finally, load the resultant type traces as above

    load_traces ()

    ## # A tibble: 1,833 × 7
    ##    fn_name    par_name  class       storage_mode length par_uneval   value      
    ##    <chr>      <chr>     <chr>       <chr>         <int> <chr>        <chr>      
    ##  1 all.equal  target    character   character         8 target[[i]]  "holm     …
    ##  2 all.equal  current   CallRoutine list              4 current[[i]] "pnbinom <…
    ##  3 all.equal  ...       NULL        NULL              0 NULL         "NULL"     
    ##  4 all.equal  target    numeric     double          100 ..1          " 0.1  0.2…
    ##  5 all.equal  current   numeric     double          100 ..2          " 0.100000…
    ##  6 all.equal  ...       NULL        NULL              0 NULL         "NULL"     
    ##  7 all.equal  target    function    function          1 target[[i]]  "function …
    ##  8 all.equal  current   CallRoutine list              4 current[[i]] "pgamma <p…
    ##  9 all.equal  ...       NULL        NULL              0 NULL         "NULL"     
    ## 10 abbreviate names.arg character   character        50 state.name   "Alabama  …
    ## # … with 1,823 more rows
